<?xml version="1.0" encoding="UTF-8"?>
<svg width="24px" height="24px" viewBox="0 0 24 24" version="1.1" xmlns="http://www.w3.org/2000/svg" xmlns:xlink="http://www.w3.org/1999/xlink">
    <!-- Generator: Sketch 41.2 (35397) - http://www.bohemiancoding.com/sketch -->
    <title>icon_action_call__m</title>
    <desc>Created with Sketch.</desc>
    <defs></defs>
    <g id="Page-1" stroke="none" stroke-width="1" fill="none" fill-rule="evenodd">
        <g id="icon_action_call__m">
            <g id="art">
                <rect id="Rectangle-path" x="0" y="0" width="24" height="24"></rect>
                <path d="M16.044,10.81 C16.482,9.107 15.735,8.265 15.031,7.859 L13.178,6.79 C12.699,6.513 13.181,5.647 13.238,5.549 L14.986,2.522 C15.174,2.195 15.336,2.073 15.438,2.028 C15.489,2.006 15.622,1.947 15.886,2.1 L16.812,2.635 C17.833,3.224 19.211,4.609 19.737,6.573 C20.299,8.666 20.12,10.876 17.498,15.417 C14.876,19.958 13.053,21.218 10.959,21.779 C8.996,22.305 7.107,21.803 6.086,21.214 L5.16,20.679 C4.964,20.566 4.668,20.395 5.075,19.687 L6.822,16.661 C6.879,16.564 7.391,15.714 7.868,15.99 L9.72,17.059 C10.424,17.466 11.528,17.691 12.782,16.46 C13.5176244,15.7398624 14.2061361,14.5671447 14.685,13.736 C15.173,12.891 15.78,11.84 16.044,10.81 Z M12.082,15.745 C11.214,16.595 10.629,16.428 10.219,16.192 L8.367,15.123 C7.54,14.647 6.596,15.055 5.956,16.161 L4.208,19.188 C3.39,20.609 4.251,21.311 4.659,21.547 L5.585,22.082 C6.423,22.566 7.76,22.999 9.269,22.999 C9.897,22.999 10.554,22.924 11.218,22.746 C13.558,22.119 15.57,20.758 18.363,15.918 C21.159,11.078 21.331,8.655 20.704,6.315 C20.099,4.056 18.499,2.455 17.312,1.77 L16.386,1.235 C15.805,0.9 15.331,0.985 15.035,1.113 C14.686,1.266 14.379,1.572 14.119,2.023 L12.372,5.049 C11.732,6.155 11.852,7.178 12.678,7.656 L14.531,8.725 C14.943,8.963 15.378,9.387 15.076,10.561 C14.846,11.458 14.276,12.444 13.818,13.236 C13.361,14.028 12.744,15.096 12.082,15.745 Z" id="Shape" fill="#0B1F35" transform="translate(12.435506, 11.999547) scale(-1, 1) translate(-12.435506, -11.999547) "></path>
            </g>
        </g>
    </g>
</svg>