<?xml version="1.0" encoding="UTF-8" standalone="no"?>
<svg width="24px" height="24px" viewBox="0 0 24 24" version="1.1" xmlns="http://www.w3.org/2000/svg" xmlns:xlink="http://www.w3.org/1999/xlink">
    <!-- Generator: Sketch 41.2 (35397) - http://www.bohemiancoding.com/sketch -->
    <title>icon_tool_site__m__white</title>
    <desc>Created with Sketch.</desc>
    <defs></defs>
    <g id="set" stroke="none" stroke-width="1" fill="none" fill-rule="evenodd">
        <g id="mobile" transform="translate(-60.000000, -1341.000000)">
            <g id="Headings" transform="translate(64.000000, 77.000000)"></g>
            <g id="icon_tool_site__m__white" transform="translate(60.000000, 1341.000000)">
                <g id="art">
                    <rect id="Rectangle-path" x="0" y="0" width="24" height="24"></rect>
                    <path id="Shape" fill="#FFFFFF" opacity="0.3"></path>
                    <path d="M14,19 L1.31,19 C0.588,19 0,18.433 0,17.735 L0,2.265 C0,1.567 0.588,1 1.31,1 L21.5,1 C22.327,1 23,1.673 23,2.5 L23,4 L22,4 L22,2.5 C22,2.225 21.775,2 21.5,2 L1.31,2 C1.139,2 1,2.119 1,2.265 L1,17.736 C1,17.881 1.139,18 1.31,18 L14,18 L14,19 L14,19 Z" id="Shape" fill="#FFFFFF"></path>
                    <rect id="Rectangle-path" fill="#FFFFFF" x="11" y="18.5" width="1" height="4"></rect>
                    <rect id="Rectangle-path" fill="#FFFFFF" x="8" y="22" width="7" height="1"></rect>
                    <path d="M15.344,17 C15.269,17 15.208,17.062 15.208,17.138 L15.208,18.862 C15.208,18.939 15.269,19 15.344,19 L23.865,19 C23.939,19 24,18.938 24,18.862 L24,17.138 C24,17.062 23.94,17 23.865,17 L15.344,17" id="Shape" fill="#FFFFFF" opacity="0.3"></path>
                    <path d="M23.579,13.389 C23.506,13.191 21.078,6.608 20.974,6.327 C20.728,5.663 20.434,5 19.499,5 C18.565,5 18.26,5.673 18.024,6.327 C17.902,6.664 15.511,13.142 15.421,13.389 C15.395,13.458 15.429,13.539 15.501,13.567 C15.576,13.596 16.843,14.082 16.917,14.111 C16.991,14.14 17.066,14.095 17.09,14.03 C17.114,13.964 17.684,12.359 17.744,12.199 L21.258,12.199 C21.317,12.36 21.882,13.962 21.907,14.03 C21.933,14.098 22.011,14.137 22.081,14.111 C22.15,14.085 23.412,13.599 23.498,13.567 C23.586,13.534 23.599,13.443 23.579,13.389 L23.579,13.389 Z M18.318,10.6 L19.493,7.15 L19.508,7.15 L20.687,10.6 L18.318,10.6 L18.318,10.6 Z" id="Shape" fill="#FFFFFF" opacity="0.3"></path>
                </g>
            </g>
        </g>
    </g>
</svg>