<?xml version="1.0" encoding="UTF-8"?>
<svg width="28px" height="28px" viewBox="0 0 28 28" version="1.1" xmlns="http://www.w3.org/2000/svg" xmlns:xlink="http://www.w3.org/1999/xlink">
    <!-- Generator: Sketch 42 (36781) - http://www.bohemiancoding.com/sketch -->
    <title>Combined Shape</title>
    <desc>Created with Sketch.</desc>
    <defs></defs>
    <g id="Page-1" stroke="none" stroke-width="1" fill="none" fill-rule="evenodd">
        <g id="log_in.1.1-copy-27" transform="translate(-273.000000, -178.000000)" fill="#FFFFFF">
            <path d="M287,206 C279.268014,206 273,199.731986 273,192 C273,184.268014 279.268014,178 287,178 C294.731986,178 301,184.268014 301,192 C301,199.731986 294.731986,206 287,206 Z M278,191.468707 L278,192.49682 L293.939258,192.49682 L287.387815,199.317593 L288.188947,200.154044 L295.818182,191.982764 L288.188947,184 L287.387815,184.717156 L293.939258,191.468707 L278,191.468707 Z" id="Combined-Shape"></path>
        </g>
    </g>
</svg>